############### Welcome to Roullete ###############
Please type in 'exit' to exit the game)
############### Welcome to Roullete ###############
Please type in 'exit' to exit the game)
Dice will roll every 30 seconds, if at least one player bets..!!
Number 17
Player		Bet		Outcome		Winnings
David		even		LOSE		0



Player		Total Win		Total Bet
David		0		1



